[?1h=[?25l[H[2J(B[mtop - 15:50:35 up 13 min,  2 users,  load average: 0.17, 0.06, 0.01(B[m[39;49m(B[m[39;49m[K
Tasks:(B[m[39;49m[1m 103 (B[m[39;49mtotal,(B[m[39;49m[1m   1 (B[m[39;49mrunning,(B[m[39;49m[1m 102 (B[m[39;49msleeping,(B[m[39;49m[1m   0 (B[m[39;49mstopped,(B[m[39;49m[1m   0 (B[m[39;49mzombie(B[m[39;49m(B[m[39;49m[K
%Cpu(s):(B[m[39;49m[1m  2.0 (B[m[39;49mus,(B[m[39;49m[1m  1.1 (B[m[39;49msy,(B[m[39;49m[1m  0.0 (B[m[39;49mni,(B[m[39;49m[1m 96.5 (B[m[39;49mid,(B[m[39;49m[1m  0.2 (B[m[39;49mwa,(B[m[39;49m[1m  0.0 (B[m[39;49mhi,(B[m[39;49m[1m  0.1 (B[m[39;49msi,(B[m[39;49m[1m  0.0 (B[m[39;49mst(B[m[39;49m(B[m[39;49m[K
KiB Mem :(B[m[39;49m[1m  1023768 (B[m[39;49mtotal,(B[m[39;49m[1m   751352 (B[m[39;49mfree,(B[m[39;49m[1m    50324 (B[m[39;49mused,(B[m[39;49m[1m   222092 (B[m[39;49mbuff/cache(B[m[39;49m(B[m[39;49m[K
KiB Swap:(B[m[39;49m[1m  1003516 (B[m[39;49mtotal,(B[m[39;49m[1m  1003516 (B[m[39;49mfree,(B[m[39;49m[1m        0 (B[m[39;49mused.(B[m[39;49m[1m   825068 (B[m[39;49mavail Mem (B[m[39;49m(B[m[39;49m[K
[K
[7m  PID USER      PR  NI    VIRT    RES    SHR S %CPU %MEM     TIME+ COMMAND                                           (B[m[39;49m[K
(B[m[1m 1434 student   20   0    7956   3528   3020 R  6.2  0.3   0:00.01 top                                               (B[m[39;49m[K
(B[m    1 root      20   0    6664   4972   3664 S  0.0  0.5   0:03.52 systemd                                           (B[m[39;49m[K
(B[m    2 root      20   0       0      0      0 S  0.0  0.0   0:00.00 kthreadd                                          (B[m[39;49m[K
(B[m    3 root      20   0       0      0      0 S  0.0  0.0   0:00.11 ksoftirqd/0                                       (B[m[39;49m[K
(B[m    4 root      20   0       0      0      0 S  0.0  0.0   0:00.06 kworker/0:0                                       (B[m[39;49m[K
(B[m    5 root       0 -20       0      0      0 S  0.0  0.0   0:00.00 kworker/0:0H                                      (B[m[39;49m[K
(B[m    7 root      20   0       0      0      0 S  0.0  0.0   0:00.43 rcu_sched                                         (B[m[39;49m[K
(B[m    8 root      20   0       0      0      0 S  0.0  0.0   0:00.00 rcu_bh                                            (B[m[39;49m[K
(B[m    9 root      rt   0       0      0      0 S  0.0  0.0   0:00.00 migration/0                                       (B[m[39;49m[K
(B[m   10 root      rt   0       0      0      0 S  0.0  0.0   0:00.02 watchdog/0                                        (B[m[39;49m[K
(B[m   11 root      20   0       0      0      0 S  0.0  0.0   0:00.00 kdevtmpfs                                         (B[m[39;49m[K
(B[m   12 root       0 -20       0      0      0 S  0.0  0.0   0:00.00 netns                                             (B[m[39;49m[K
(B[m   13 root       0 -20       0      0      0 S  0.0  0.0   0:00.00 perf                                              (B[m[39;49m[K
(B[m   14 root      20   0       0      0      0 S  0.0  0.0   0:00.00 khungtaskd                                        (B[m[39;49m[K
(B[m   15 root       0 -20       0      0      0 S  0.0  0.0   0:00.00 writeback                                         (B[m[39;49m[K
(B[m   16 root      25   5       0      0      0 S  0.0  0.0   0:00.00 ksmd                                              (B[m[39;49m[K
(B[m   17 root      39  19       0      0      0 S  0.0  0.0   0:00.00 khugepaged                                        (B[m[39;49m[K
(B[m   18 root       0 -20       0      0      0 S  0.0  0.0   0:00.00 crypto                                            (B[m[39;49m[K
(B[m   19 root       0 -20       0      0      0 S  0.0  0.0   0:00.00 kintegrityd                                       (B[m[39;49m[K
(B[m   20 root       0 -20       0      0      0 S  0.0  0.0   0:00.00 bioset                                            (B[m[39;49m[K
(B[m   21 root       0 -20       0      0      0 S  0.0  0.0   0:00.00 kblockd                                           (B[m[39;49m[K
(B[m   22 root       0 -20       0      0      0 S  0.0  0.0   0:00.00 ata_sff                                           (B[m[39;49m[K
(B[m   23 root       0 -20       0      0      0 S  0.0  0.0   0:00.00 md                                                (B[m[39;49m[K
(B[m   24 root       0 -20       0      0      0 S  0.0  0.0   0:00.00 devfreq_wq                                        (B[m[39;49m[K
(B[m   25 root      20   0       0      0      0 S  0.0  0.0   0:00.68 kworker/u2:1                                      (B[m[39;49m[K
(B[m   26 root      20   0       0      0      0 S  0.0  0.0   0:01.25 kworker/0:1                                       (B[m[39;49m[K
(B[m   28 root      20   0       0      0      0 S  0.0  0.0   0:00.00 kswapd0                                           (B[m[39;49m[K
(B[m   29 root       0 -20       0      0      0 S  0.0  0.0   0:00.00 vmstat                                            (B[m[39;49m[K
(B[m   30 root      20   0       0      0      0 S  0.0  0.0   0:00.00 fsnotify_mark                                     (B[m[39;49m[K
(B[m   31 root      20   0       0      0      0 S  0.0  0.0   0:00.00 ecryptfs-kthrea                                   (B[m[39;49m[K
(B[m   47 root       0 -20       0      0      0 S  0.0  0.0   0:00.00 kthrotld                                          (B[m[39;49m[K
(B[m   48 root       0 -20       0      0      0 S  0.0  0.0   0:00.00 acpi_thermal_pm                                   (B[m[39;49m[K
(B[m   50 root       0 -20       0      0      0 S  0.0  0.0   0:00.00 bioset                                            (B[m[39;49m[K
(B[m   51 root       0 -20       0      0      0 S  0.0  0.0   0:00.00 bioset                                            (B[m[39;49m[K
(B[m   52 root       0 -20       0      0      0 S  0.0  0.0   0:00.00 bioset                                            (B[m[39;49m[K
(B[m   53 root       0 -20       0      0      0 S  0.0  0.0   0:00.00 bioset                                            (B[m[39;49m[K
(B[m   54 root       0 -20       0      0      0 S  0.0  0.0   0:00.00 bioset                                            (B[m[39;49m[K
(B[m   55 root       0 -20       0      0      0 S  0.0  0.0   0:00.00 bioset                                            (B[m[39;49m[K
(B[m   56 root       0 -20       0      0      0 S  0.0  0.0   0:00.00 bioset                                            (B[m[39;49m[K
(B[m   57 root       0 -20       0      0      0 S  0.0  0.0   0:00.00 bioset                                            (B[m[39;49m[K
(B[m   58 root      20   0       0      0      0 S  0.0  0.0   0:00.00 scsi_eh_0                                         (B[m[39;49m[K
(B[m   59 root       0 -20       0      0      0 S  0.0  0.0   0:00.00 scsi_tmf_0                                        (B[m[39;49m[K
(B[m   60 root      20   0       0      0      0 S  0.0  0.0   0:00.01 scsi_eh_1                                         (B[m[39;49m[K
(B[m   61 root       0 -20       0      0      0 S  0.0  0.0   0:00.00 scsi_tmf_1                                        (B[m[39;49m[K
(B[m   64 root       0 -20       0      0      0 S  0.0  0.0   0:00.00 ipv6_addrconf                                     (B[m[39;49m[K
(B[m   77 root       0 -20       0      0      0 S  0.0  0.0   0:00.00 deferwq                                           (B[m[39;49m[K
(B[m   78 root       0 -20       0      0      0 S  0.0  0.0   0:00.00 charger_manager                                   (B[m[39;49m[K
(B[m   79 root       0 -20       0      0      0 S  0.0  0.0   0:00.00 bioset                                            (B[m[39;49m[K
(B[m  120 root       0 -20       0      0      0 S  0.0  0.0   0:00.04 kworker/0:1H                                      (B[m[39;49m[K
(B[m  121 root       0 -20       0      0      0 S  0.0  0.0   0:00.00 kpsmoused                                         (B[m[39;49m[K
(B[m  128 root      20   0       0      0      0 S  0.0  0.0   0:00.01 scsi_eh_2                                         (B[m[39;49m[K
(B[m  129 root       0 -20       0      0      0 S  0.0  0.0   0:00.00 scsi_tmf_2                                        (B[m[39;49m[K
(B[m  147 root       0 -20       0      0      0 S  0.0  0.0   0:00.00 bioset                                            (B[m[39;49m[K
(B[m  152 root       0 -20       0      0      0 S  0.0  0.0   0:00.00 ttm_swap                                          (B[m[39;49m[K
(B[m  219 root       0 -20       0      0      0 S  0.0  0.0   0:00.00 raid5wq                                           (B[m[39;49m[K[H(B[mtop - 15:50:38 up 13 min,  2 users,  load average: 0.15, 0.06, 0.01(B[m[39;49m(B[m[39;49m[K
Tasks:(B[m[39;49m[1m 103 (B[m[39;49mtotal,(B[m[39;49m[1m   1 (B[m[39;49mrunning,(B[m[39;49m[1m 102 (B[m[39;49msleeping,(B[m[39;49m[1m   0 (B[m[39;49mstopped,(B[m[39;49m[1m   0 (B[m[39;49mzombie(B[m[39;49m(B[m[39;49m[K
%Cpu(s):(B[m[39;49m[1m  1.0 (B[m[39;49mus,(B[m[39;49m[1m  0.3 (B[m[39;49msy,(B[m[39;49m[1m  0.0 (B[m[39;49mni,(B[m[39;49m[1m 98.7 (B[m[39;49mid,(B[m[39;49m[1m  0.0 (B[m[39;49mwa,(B[m[39;49m[1m  0.0 (B[m[39;49mhi,(B[m[39;49m[1m  0.0 (B[m[39;49msi,(B[m[39;49m[1m  0.0 (B[m[39;49mst(B[m[39;49m(B[m[39;49m[K
KiB Mem :(B[m[39;49m[1m  1023768 (B[m[39;49mtotal,(B[m[39;49m[1m   751352 (B[m[39;49mfree,(B[m[39;49m[1m    50316 (B[m[39;49mused,(B[m[39;49m[1m   222100 (B[m[39;49mbuff/cache(B[m[39;49m(B[m[39;49m[K
KiB Swap:(B[m[39;49m[1m  1003516 (B[m[39;49mtotal,(B[m[39;49m[1m  1003516 (B[m[39;49mfree,(B[m[39;49m[1m        0 (B[m[39;49mused.(B[m[39;49m[1m   825076 (B[m[39;49mavail Mem (B[m[39;49m(B[m[39;49m[K
[K

(B[m[1m 1434 student   20   0    8112   3528   3020 R  1.0  0.3   0:00.04 top                                               (B[m[39;49m[K
(B[m  807 root      20   0    4072   3056   2752 S  0.3  0.3   0:00.02 systemd-logind                                    (B[m[39;49m[K
(B[m    1 root      20   0    6664   4972   3664 S  0.0  0.5   0:03.52 systemd                                           (B[m[39;49m[K
(B[m    2 root      20   0       0      0      0 S  0.0  0.0   0:00.00 kthreadd                                          (B[m[39;49m[K
(B[m    3 root      20   0       0      0      0 S  0.0  0.0   0:00.11 ksoftirqd/0                                       (B[m[39;49m[K
(B[m    4 root      20   0       0      0      0 S  0.0  0.0   0:00.06 kworker/0:0                                       (B[m[39;49m[K
(B[m    5 root       0 -20       0      0      0 S  0.0  0.0   0:00.00 kworker/0:0H                                      (B[m[39;49m[K
(B[m    7 root      20   0       0      0      0 S  0.0  0.0   0:00.43 rcu_sched                                         (B[m[39;49m[K
(B[m    8 root      20   0       0      0      0 S  0.0  0.0   0:00.00 rcu_bh                                            (B[m[39;49m[K
(B[m    9 root      rt   0       0      0      0 S  0.0  0.0   0:00.00 migration/0                                       (B[m[39;49m[K
(B[m   10 root      rt   0       0      0      0 S  0.0  0.0   0:00.02 watchdog/0                                        (B[m[39;49m[K
(B[m   11 root      20   0       0      0      0 S  0.0  0.0   0:00.00 kdevtmpfs                                         (B[m[39;49m[K
(B[m   12 root       0 -20       0      0      0 S  0.0  0.0   0:00.00 netns                                             (B[m[39;49m[K
(B[m   13 root       0 -20       0      0      0 S  0.0  0.0   0:00.00 perf                                              (B[m[39;49m[K
(B[m   14 root      20   0       0      0      0 S  0.0  0.0   0:00.00 khungtaskd                                        (B[m[39;49m[K
(B[m   15 root       0 -20       0      0      0 S  0.0  0.0   0:00.00 writeback                                         (B[m[39;49m[K
(B[m   16 root      25   5       0      0      0 S  0.0  0.0   0:00.00 ksmd                                              (B[m[39;49m[K
(B[m   17 root      39  19       0      0      0 S  0.0  0.0   0:00.00 khugepaged                                        (B[m[39;49m[K
(B[m   18 root       0 -20       0      0      0 S  0.0  0.0   0:00.00 crypto                                            (B[m[39;49m[K
(B[m   19 root       0 -20       0      0      0 S  0.0  0.0   0:00.00 kintegrityd                                       (B[m[39;49m[K
(B[m   20 root       0 -20       0      0      0 S  0.0  0.0   0:00.00 bioset                                            (B[m[39;49m[K
(B[m   21 root       0 -20       0      0      0 S  0.0  0.0   0:00.00 kblockd                                           (B[m[39;49m[K
(B[m   22 root       0 -20       0      0      0 S  0.0  0.0   0:00.00 ata_sff                                           (B[m[39;49m[K
(B[m   23 root       0 -20       0      0      0 S  0.0  0.0   0:00.00 md                                                (B[m[39;49m[K
(B[m   24 root       0 -20       0      0      0 S  0.0  0.0   0:00.00 devfreq_wq                                        (B[m[39;49m[K
(B[m   25 root      20   0       0      0      0 S  0.0  0.0   0:00.68 kworker/u2:1                                      (B[m[39;49m[K
(B[m   26 root      20   0       0      0      0 S  0.0  0.0   0:01.25 kworker/0:1                                       (B[m[39;49m[K
(B[m   28 root      20   0       0      0      0 S  0.0  0.0   0:00.00 kswapd0                                           (B[m[39;49m[K
(B[m   29 root       0 -20       0      0      0 S  0.0  0.0   0:00.00 vmstat                                            (B[m[39;49m[K
(B[m   30 root      20   0       0      0      0 S  0.0  0.0   0:00.00 fsnotify_mark                                     (B[m[39;49m[K
(B[m   31 root      20   0       0      0      0 S  0.0  0.0   0:00.00 ecryptfs-kthrea                                   (B[m[39;49m[K
(B[m   47 root       0 -20       0      0      0 S  0.0  0.0   0:00.00 kthrotld                                          (B[m[39;49m[K
(B[m   48 root       0 -20       0      0      0 S  0.0  0.0   0:00.00 acpi_thermal_pm                                   (B[m[39;49m[K
(B[m   50 root       0 -20       0      0      0 S  0.0  0.0   0:00.00 bioset                                            (B[m[39;49m[K
(B[m   51 root       0 -20       0      0      0 S  0.0  0.0   0:00.00 bioset                                            (B[m[39;49m[K
(B[m   52 root       0 -20       0      0      0 S  0.0  0.0   0:00.00 bioset                                            (B[m[39;49m[K
(B[m   53 root       0 -20       0      0      0 S  0.0  0.0   0:00.00 bioset                                            (B[m[39;49m[K
(B[m   54 root       0 -20       0      0      0 S  0.0  0.0   0:00.00 bioset                                            (B[m[39;49m[K
(B[m   55 root       0 -20       0      0      0 S  0.0  0.0   0:00.00 bioset                                            (B[m[39;49m[K
(B[m   56 root       0 -20       0      0      0 S  0.0  0.0   0:00.00 bioset                                            (B[m[39;49m[K
(B[m   57 root       0 -20       0      0      0 S  0.0  0.0   0:00.00 bioset                                            (B[m[39;49m[K
(B[m   58 root      20   0       0      0      0 S  0.0  0.0   0:00.00 scsi_eh_0                                         (B[m[39;49m[K
(B[m   59 root       0 -20       0      0      0 S  0.0  0.0   0:00.00 scsi_tmf_0                                        (B[m[39;49m[K
(B[m   60 root      20   0       0      0      0 S  0.0  0.0   0:00.01 scsi_eh_1                                         (B[m[39;49m[K
(B[m   61 root       0 -20       0      0      0 S  0.0  0.0   0:00.00 scsi_tmf_1                                        (B[m[39;49m[K
(B[m   64 root       0 -20       0      0      0 S  0.0  0.0   0:00.00 ipv6_addrconf                                     (B[m[39;49m[K
(B[m   77 root       0 -20       0      0      0 S  0.0  0.0   0:00.00 deferwq                                           (B[m[39;49m[K
(B[m   78 root       0 -20       0      0      0 S  0.0  0.0   0:00.00 charger_manager                                   (B[m[39;49m[K
(B[m   79 root       0 -20       0      0      0 S  0.0  0.0   0:00.00 bioset                                            (B[m[39;49m[K
(B[m  120 root       0 -20       0      0      0 S  0.0  0.0   0:00.04 kworker/0:1H                                      (B[m[39;49m[K
(B[m  121 root       0 -20       0      0      0 S  0.0  0.0   0:00.00 kpsmoused                                         (B[m[39;49m[K
(B[m  128 root      20   0       0      0      0 S  0.0  0.0   0:00.01 scsi_eh_2                                         (B[m[39;49m[K
(B[m  129 root       0 -20       0      0      0 S  0.0  0.0   0:00.00 scsi_tmf_2                                        (B[m[39;49m[K
(B[m  147 root       0 -20       0      0      0 S  0.0  0.0   0:00.00 bioset                                            (B[m[39;49m[K
(B[m  152 root       0 -20       0      0      0 S  0.0  0.0   0:00.00 ttm_swap                                          (B[m[39;49m[K[?1l>[63;1H
[?12l[?25h[K